Mplus VERSION 8.1
MUTHEN & MUTHEN
08/27/2018   7:49 AM

INPUT INSTRUCTIONS



    TITLE: M1 PSR - Outcome: TeamCreativity

    DATA:
      FILE = ../../../M1.csv;

    VARIABLE:
      NAMES = ID Team Employee kohr tm_empwr tm_k_clm sps_sft
              ind_prof ind_adpt ind_proa l_t_crea l_t_perf
              l_k_ut l_tm_l;

      IDVARIABLE = ID;
      CLUSTER = TEAM;
      MISSING = ALL(-99);
      USEVARIABLES = kohr-tm_k_clm l_t_crea l_t_perf;

    ANALYSIS:
      PROCESS = 16;
      TYPE = COMPLEX;

    MODEL:
      l_t_crea l_t_perf ON tm_empwr-tm_k_clm;
      tm_empwr-tm_k_clm ON kohr;

    OUTPUT:
      STDYX MOD(ALL 3.84);



*** WARNING
  Data set contains cases with missing on all variables.
  These cases were not included in the analysis.
  Number of cases with missing on all variables:  85
*** WARNING
  Data set contains cases with missing on all variables except
  x-variables.  These cases were not included in the analysis.
  Number of cases with missing on all variables except x-variables:  1
   2 WARNING(S) FOUND IN THE INPUT INSTRUCTIONS



M1 PSR - Outcome: TeamCreativity

SUMMARY OF ANALYSIS

Number of groups                                                 1
Number of observations                                         243

Number of dependent variables                                    4
Number of independent variables                                  1
Number of continuous latent variables                            0

Observed dependent variables

  Continuous
   TM_EMPWR    TM_K_CLM    L_T_CREA    L_T_PERF

Observed independent variables
   KOHR

Variables with special functions

  Cluster variable      TEAM
  ID variable           ID

Estimator                                                      MLR
Information matrix                                        OBSERVED
Maximum number of iterations                                  1000
Convergence criterion                                    0.500D-04
Maximum number of steepest descent iterations                   20
Maximum number of iterations for H1                           2000
Convergence criterion for H1                             0.100D-03

Input data file(s)
  ../../../M1.csv

Input data format  FREE


SUMMARY OF DATA

     Number of missing data patterns             4
     Number of clusters          70



COVARIANCE COVERAGE OF DATA

Minimum covariance coverage value   0.100


     PROPORTION OF DATA PRESENT


           Covariance Coverage
              TM_EMPWR      TM_K_CLM      L_T_CREA      L_T_PERF      KOHR
              ________      ________      ________      ________      ________
 TM_EMPWR       0.510
 TM_K_CLM       0.510         1.000
 L_T_CREA       0.498         0.547         0.547
 L_T_PERF       0.498         0.547         0.547         0.547
 KOHR           0.510         1.000         0.547         0.547         1.000



UNIVARIATE SAMPLE STATISTICS


     UNIVARIATE HIGHER-ORDER MOMENT DESCRIPTIVE STATISTICS

         Variable/         Mean/     Skewness/   Minimum/ % with                Percentiles
        Sample Size      Variance    Kurtosis    Maximum  Min/Max      20%/60%    40%/80%    Median

     TM_EMPWR              5.700      -0.435       4.083    2.42%       5.167      5.667      5.833
             124.000       0.402      -0.214       7.000    1.61%       5.917      6.250
     TM_K_CLM              5.519      -1.311       0.000    0.41%       4.714      5.429      5.571
             243.000       1.012       4.169       7.000    7.00%       5.857      6.429
     L_T_CREA              5.589      -1.100       2.667    3.01%       4.667      5.667      6.000
             133.000       1.096       0.780       7.000    9.02%       6.000      6.333
     L_T_PERF              5.575      -1.182       2.286    3.01%       5.000      5.571      5.571
             133.000       0.904       2.420       7.000    3.01%       5.857      6.429
     KOHR                  5.328      -0.408       2.774    0.41%       4.626      5.161      5.419
             243.000       0.745      -0.319       7.000    0.41%       5.613      6.066


THE MODEL ESTIMATION TERMINATED NORMALLY



MODEL FIT INFORMATION

Number of Free Parameters                       15

Loglikelihood

          H0 Value                        -693.418
          H0 Scaling Correction Factor      3.1492
            for MLR
          H1 Value                        -689.679
          H1 Scaling Correction Factor      2.8144
            for MLR

Information Criteria

          Akaike (AIC)                    1416.836
          Bayesian (BIC)                  1469.232
          Sample-Size Adjusted BIC        1421.684
            (n* = (n + 2) / 24)

Chi-Square Test of Model Fit

          Value                              6.559*
          Degrees of Freedom                     3
          P-Value                           0.0874
          Scaling Correction Factor         1.1402
            for MLR

*   The chi-square value for MLM, MLMV, MLR, ULSMV, WLSM and WLSMV cannot be used
    for chi-square difference testing in the regular way.  MLM, MLR and WLSM
    chi-square difference testing is described on the Mplus website.  MLMV, WLSMV,
    and ULSMV difference testing is done using the DIFFTEST option.

RMSEA (Root Mean Square Error Of Approximation)

          Estimate                           0.070
          90 Percent C.I.                    0.000  0.144
          Probability RMSEA <= .05           0.255

CFI/TLI

          CFI                                0.978
          TLI                                0.927

Chi-Square Test of Model Fit for the Baseline Model

          Value                            172.527
          Degrees of Freedom                    10
          P-Value                           0.0000

SRMR (Standardized Root Mean Square Residual)

          Value                              0.036



MODEL RESULTS

                                                    Two-Tailed
                    Estimate       S.E.  Est./S.E.    P-Value

 L_T_CREA ON
    TM_EMPWR           0.324      0.201      1.614      0.107
    TM_K_CLM          -0.148      0.083     -1.796      0.073

 L_T_PERF ON
    TM_EMPWR           0.221      0.159      1.391      0.164
    TM_K_CLM          -0.079      0.070     -1.139      0.255

 TM_EMPWR ON
    KOHR               0.323      0.064      5.049      0.000

 TM_K_CLM ON
    KOHR               0.725      0.088      8.211      0.000

 L_T_PERF WITH
    L_T_CREA           0.781      0.311      2.513      0.012

 Intercepts
    TM_EMPWR           3.946      0.354     11.144      0.000
    TM_K_CLM           1.658      0.510      3.252      0.001
    L_T_CREA           4.569      1.087      4.204      0.000
    L_T_PERF           4.758      0.907      5.248      0.000

 Residual Variances
    TM_EMPWR           0.320      0.039      8.279      0.000
    TM_K_CLM           0.621      0.167      3.728      0.000
    L_T_CREA           1.049      0.307      3.416      0.001
    L_T_PERF           0.884      0.333      2.658      0.008


STANDARDIZED MODEL RESULTS


STDYX Standardization

                                                    Two-Tailed
                    Estimate       S.E.  Est./S.E.    P-Value

 L_T_CREA ON
    TM_EMPWR           0.195      0.117      1.670      0.095
    TM_K_CLM          -0.143      0.071     -1.995      0.046

 L_T_PERF ON
    TM_EMPWR           0.147      0.107      1.370      0.171
    TM_K_CLM          -0.084      0.076     -1.110      0.267

 TM_EMPWR ON
    KOHR               0.442      0.076      5.825      0.000

 TM_K_CLM ON
    KOHR               0.622      0.067      9.249      0.000

 L_T_PERF WITH
    L_T_CREA           0.812      0.078     10.349      0.000

 Intercepts
    TM_EMPWR           6.255      0.868      7.210      0.000
    TM_K_CLM           1.648      0.625      2.638      0.008
    L_T_CREA           4.364      1.361      3.206      0.001
    L_T_PERF           5.004      1.489      3.360      0.001

 Residual Variances
    TM_EMPWR           0.805      0.067     12.000      0.000
    TM_K_CLM           0.613      0.084      7.340      0.000
    L_T_CREA           0.957      0.042     22.994      0.000
    L_T_PERF           0.978      0.028     34.451      0.000


R-SQUARE

    Observed                                        Two-Tailed
    Variable        Estimate       S.E.  Est./S.E.    P-Value

    TM_EMPWR           0.195      0.067      2.913      0.004
    TM_K_CLM           0.387      0.084      4.625      0.000
    L_T_CREA           0.043      0.042      1.039      0.299
    L_T_PERF           0.022      0.028      0.768      0.442


QUALITY OF NUMERICAL RESULTS

     Condition Number for the Information Matrix              0.785E-04
       (ratio of smallest to largest eigenvalue)


MODEL MODIFICATION INDICES

Minimum M.I. value for printing the modification index     3.840

                                   M.I.     E.P.C.  Std E.P.C.  StdYX E.P.C.

ON Statements

TM_EMPWR ON L_T_PERF               4.693    -0.333     -0.333       -0.501
TM_K_CLM ON L_T_PERF               4.256    -0.271     -0.271       -0.256
L_T_PERF ON KOHR                   5.748     0.195      0.195        0.177

WITH Statements

L_T_PERF WITH TM_EMPWR             5.748    -0.193     -0.193       -0.363
L_T_PERF WITH TM_K_CLM             5.748    -0.167     -0.167       -0.225
KOHR     WITH L_T_PERF             5.748     0.145      0.145        0.179


DIAGRAM INFORMATION

  Use View Diagram under the Diagram menu in the Mplus Editor to view the diagram.
  If running Mplus from the Mplus Diagrammer, the diagram opens automatically.

  Diagram output
    c:\users\263389i\documents\knowledge-share\model 1\mplus\newoutcomes\psychsafetyremoved\teamcreativity_psr.dgm

     Beginning Time:  07:49:35
        Ending Time:  07:49:35
       Elapsed Time:  00:00:00



MUTHEN & MUTHEN
3463 Stoner Ave.
Los Angeles, CA  90066

Tel: (310) 391-9971
Fax: (310) 391-8971
Web: www.StatModel.com
Support: Support@StatModel.com

Copyright (c) 1998-2018 Muthen & Muthen
