Mplus VERSION 8.1
MUTHEN & MUTHEN
08/27/2018   7:50 AM

INPUT INSTRUCTIONS



    TITLE: M1 PSR - Outcome: TeamLearning

    DATA:
      FILE = ../../../M1.csv;

    VARIABLE:
      NAMES = ID Team Employee kohr tm_empwr tm_k_clm sps_sft
              ind_prof ind_adpt ind_proa l_t_crea l_t_perf
              l_k_ut l_tm_l;

      IDVARIABLE = ID;
      CLUSTER = TEAM;
      MISSING = ALL(-99);
      USEVARIABLES = kohr-tm_k_clm l_tm_l;

    ANALYSIS:
      PROCESS = 16;
      TYPE = COMPLEX;

    MODEL:
      l_tm_l ON tm_empwr-tm_k_clm;
      tm_empwr-tm_k_clm ON kohr;

    OUTPUT:
      STDYX MOD(ALL 3.84);



*** WARNING
  Data set contains cases with missing on all variables.
  These cases were not included in the analysis.
  Number of cases with missing on all variables:  85
*** WARNING
  Data set contains cases with missing on all variables except
  x-variables.  These cases were not included in the analysis.
  Number of cases with missing on all variables except x-variables:  1
   2 WARNING(S) FOUND IN THE INPUT INSTRUCTIONS



M1 PSR - Outcome: TeamLearning

SUMMARY OF ANALYSIS

Number of groups                                                 1
Number of observations                                         243

Number of dependent variables                                    3
Number of independent variables                                  1
Number of continuous latent variables                            0

Observed dependent variables

  Continuous
   TM_EMPWR    TM_K_CLM    L_TM_L

Observed independent variables
   KOHR

Variables with special functions

  Cluster variable      TEAM
  ID variable           ID

Estimator                                                      MLR
Information matrix                                        OBSERVED
Maximum number of iterations                                  1000
Convergence criterion                                    0.500D-04
Maximum number of steepest descent iterations                   20
Maximum number of iterations for H1                           2000
Convergence criterion for H1                             0.100D-03

Input data file(s)
  ../../../M1.csv

Input data format  FREE


SUMMARY OF DATA

     Number of missing data patterns             4
     Number of clusters          70



COVARIANCE COVERAGE OF DATA

Minimum covariance coverage value   0.100


     PROPORTION OF DATA PRESENT


           Covariance Coverage
              TM_EMPWR      TM_K_CLM      L_TM_L        KOHR
              ________      ________      ________      ________
 TM_EMPWR       0.510
 TM_K_CLM       0.510         1.000
 L_TM_L         0.465         0.510         0.510
 KOHR           0.510         1.000         0.510         1.000



UNIVARIATE SAMPLE STATISTICS


     UNIVARIATE HIGHER-ORDER MOMENT DESCRIPTIVE STATISTICS

         Variable/         Mean/     Skewness/   Minimum/ % with                Percentiles
        Sample Size      Variance    Kurtosis    Maximum  Min/Max      20%/60%    40%/80%    Median

     TM_EMPWR              5.700      -0.435       4.083    2.42%       5.167      5.667      5.833
             124.000       0.402      -0.214       7.000    1.61%       5.917      6.250
     TM_K_CLM              5.519      -1.311       0.000    0.41%       4.714      5.429      5.571
             243.000       1.012       4.169       7.000    7.00%       5.857      6.429
     L_TM_L                5.143      -1.192       1.000    3.23%       4.429      5.000      5.286
             124.000       1.478       2.480       7.000    9.68%       5.571      6.000
     KOHR                  5.328      -0.408       2.774    0.41%       4.626      5.161      5.419
             243.000       0.745      -0.319       7.000    0.41%       5.613      6.066


THE MODEL ESTIMATION TERMINATED NORMALLY



MODEL FIT INFORMATION

Number of Free Parameters                       10

Loglikelihood

          H0 Value                        -591.366
          H0 Scaling Correction Factor      3.1658
            for MLR
          H1 Value                        -589.291
          H1 Scaling Correction Factor      2.9107
            for MLR

Information Criteria

          Akaike (AIC)                    1202.733
          Bayesian (BIC)                  1237.663
          Sample-Size Adjusted BIC        1205.965
            (n* = (n + 2) / 24)

Chi-Square Test of Model Fit

          Value                              2.538*
          Degrees of Freedom                     2
          P-Value                           0.2811
          Scaling Correction Factor         1.6353
            for MLR

*   The chi-square value for MLM, MLMV, MLR, ULSMV, WLSM and WLSMV cannot be used
    for chi-square difference testing in the regular way.  MLM, MLR and WLSM
    chi-square difference testing is described on the Mplus website.  MLMV, WLSMV,
    and ULSMV difference testing is done using the DIFFTEST option.

RMSEA (Root Mean Square Error Of Approximation)

          Estimate                           0.033
          90 Percent C.I.                    0.000  0.136
          Probability RMSEA <= .05           0.474

CFI/TLI

          CFI                                0.993
          TLI                                0.978

Chi-Square Test of Model Fit for the Baseline Model

          Value                             79.620
          Degrees of Freedom                     6
          P-Value                           0.0000

SRMR (Standardized Root Mean Square Residual)

          Value                              0.040



MODEL RESULTS

                                                    Two-Tailed
                    Estimate       S.E.  Est./S.E.    P-Value

 L_TM_L   ON
    TM_EMPWR           0.252      0.171      1.470      0.142
    TM_K_CLM          -0.020      0.098     -0.208      0.835

 TM_EMPWR ON
    KOHR               0.323      0.065      4.958      0.000

 TM_K_CLM ON
    KOHR               0.725      0.088      8.211      0.000

 Intercepts
    TM_EMPWR           3.942      0.355     11.092      0.000
    TM_K_CLM           1.658      0.510      3.252      0.001
    L_TM_L             3.821      1.108      3.449      0.001

 Residual Variances
    TM_EMPWR           0.320      0.038      8.394      0.000
    TM_K_CLM           0.621      0.167      3.728      0.000
    L_TM_L             1.453      0.562      2.587      0.010


STANDARDIZED MODEL RESULTS


STDYX Standardization

                                                    Two-Tailed
                    Estimate       S.E.  Est./S.E.    P-Value

 L_TM_L   ON
    TM_EMPWR           0.131      0.091      1.439      0.150
    TM_K_CLM          -0.017      0.083     -0.203      0.839

 TM_EMPWR ON
    KOHR               0.442      0.077      5.768      0.000

 TM_K_CLM ON
    KOHR               0.622      0.067      9.249      0.000

 Intercepts
    TM_EMPWR           6.252      0.878      7.119      0.000
    TM_K_CLM           1.648      0.625      2.638      0.008
    L_TM_L             3.144      1.295      2.427      0.015

 Residual Variances
    TM_EMPWR           0.804      0.068     11.868      0.000
    TM_K_CLM           0.613      0.084      7.340      0.000
    L_TM_L             0.984      0.022     43.896      0.000


R-SQUARE

    Observed                                        Two-Tailed
    Variable        Estimate       S.E.  Est./S.E.    P-Value

    TM_EMPWR           0.196      0.068      2.884      0.004
    TM_K_CLM           0.387      0.084      4.625      0.000
    L_TM_L             0.016      0.022      0.721      0.471


QUALITY OF NUMERICAL RESULTS

     Condition Number for the Information Matrix              0.242E-03
       (ratio of smallest to largest eigenvalue)


MODEL MODIFICATION INDICES

Minimum M.I. value for printing the modification index     3.840

                                   M.I.     E.P.C.  Std E.P.C.  StdYX E.P.C.

No modification indices above the minimum value.



DIAGRAM INFORMATION

  Use View Diagram under the Diagram menu in the Mplus Editor to view the diagram.
  If running Mplus from the Mplus Diagrammer, the diagram opens automatically.

  Diagram output
    c:\users\263389i\documents\knowledge-share\model 1\mplus\newoutcomes\psychsafetyremoved\teamlearning_psr.dgm

     Beginning Time:  07:50:03
        Ending Time:  07:50:03
       Elapsed Time:  00:00:00



MUTHEN & MUTHEN
3463 Stoner Ave.
Los Angeles, CA  90066

Tel: (310) 391-9971
Fax: (310) 391-8971
Web: www.StatModel.com
Support: Support@StatModel.com

Copyright (c) 1998-2018 Muthen & Muthen
