

  TITLE: M1 - Outcome: TeamLearning

  DATA:
    FILE = ../../../M1.csv;

  VARIABLE:
    NAMES = ID Team Employee kohr tm_empwr tm_k_clm sps_sft
            ind_prof ind_adpt ind_proa l_t_crea l_t_perf 
            l_k_ut l_tm_l;

    IDVARIABLE = ID;
    CLUSTER = TEAM;
    MISSING = ALL(-99);
    USEVARIABLES = kohr-sps_sft l_tm_l;

  ANALYSIS:
    PROCESS = 16;
    TYPE = COMPLEX;

  MODEL:
    l_tm_l ON tm_empwr-sps_sft;
    tm_empwr-sps_sft ON kohr;

  OUTPUT:
    STDYX MOD(ALL 3.84);
