

  TITLE: M1 - M: TeamKnowledgeClimate, SC: TeamKnowledgeShare

  DATA:
    FILE = ../../M1.csv;

  VARIABLE:
    NAMES = ID Team Employee kohr tm_knclm tm_ps_sf
            tm_mpowr tkns rac k_ut sps_sft
            emp_crea emp_proa;

    IDVARIABLE = ID;
    CLUSTER = TEAM;
    MISSING = ALL(-99);
    USEVARIABLES = emp_crea emp_proa tm_mpowr tkns sps_sft kohr
                    tm_knclm MOD_EMP MOD_tkns MOD_PS;

  DEFINE:
    CENTER tm_knclm tm_mpowr tkns sps_sft (GRAND);
    MOD_EMP = tm_knclm*tm_mpowr;
    MOD_tkns = tm_knclm*tkns;
    MOD_PS = tm_knclm*sps_sft;

  ANALYSIS:
    PROCESS = 4;
    TYPE = COMPLEX;

  MODEL:
    emp_crea emp_proa ON tm_mpowr tkns sps_sft tm_knclm;
    emp_crea emp_proa ON MOD_EMP MOD_tkns MOD_PS;
    tm_mpowr tkns sps_sft ON kohr;
    kohr tm_knclm MOD_EMP MOD_tkns MOD_PS;


  MODEL INDIRECT:
    emp_crea IND kohr;
    emp_proa IND kohr;

  OUTPUT:
    MOD(ALL 3.84) STDYX;
