

  TITLE: M1 - M: TeamPsychSafety, SC: RealisedAbsorptiveCapacity

  DATA:
    FILE = ../../M1.csv;

  VARIABLE:
    NAMES = ID Team Employee kohr tm_knclm tm_ps_sf
            tm_mpowr tkns rac k_ut sps_sft
            emp_crea emp_proa;

    IDVARIABLE = ID;
    CLUSTER = TEAM;
    MISSING = ALL(-99);
    USEVARIABLES = emp_crea emp_proa tm_mpowr rac sps_sft kohr
                    tm_ps_sf MOD_EMP MOD_rac MOD_PS;

  DEFINE:
    CENTER tm_ps_sf tm_mpowr rac sps_sft (GRAND);
    MOD_EMP = tm_ps_sf*tm_mpowr;
    MOD_rac = tm_ps_sf*rac;
    MOD_PS = tm_ps_sf*sps_sft;

  ANALYSIS:
    PROCESS = 4;
    TYPE = COMPLEX;

  MODEL:
    emp_crea emp_proa ON tm_mpowr rac sps_sft tm_ps_sf;
    emp_crea emp_proa ON MOD_EMP MOD_rac MOD_PS;
    tm_mpowr rac sps_sft ON kohr;
    kohr tm_ps_sf MOD_EMP MOD_rac MOD_PS;


  MODEL INDIRECT:
    emp_crea IND kohr;
    emp_proa IND kohr;

  OUTPUT:
    MOD(ALL 3.84) STDYX;
